…
# 2021 survey data

``` r
df2021 <- get_data(2021)
df2021
```

    # A tibble: 382 × 115
          ID Consultant URL        Search_Term DateRetrieved DatePublished Job_Field
       <dbl> <chr>      <chr>      <chr>       <chr>         <chr>         <chr>    
     1     1 Abhishanya https://w… statistics… 11/10/2021    11/10/2021    Informat…
     2     2 Abhishanya https://w… statistics… 11/11/2021    11/11/2021    Education
     3     3 Abhishanya https://w… Data scien… 11/11/2021    11/9/2021     Other    
     4     4 Abhishanya https://w… Data scien… 11/11/2021    10/13/2021    Other    
     5     5 Abhishanya https://w… Statistics… 11/11/2021    10/14/2021    Informat…
     6     6 Abhishanya https://w… Data Scien… 11/11/2021    10/14/2020    Health   
     7     7 Abhishanya https://c… Data engin… 11/11/2021    11/8/2021     Other    
     8     8 Abhishanya https://l… Data engin… 11/11/2021    11/9/2021     Other    
     9     9 Abhishanya https://w… Data engin… 11/11/2021    10/20/2021    Informat…
    10    10 Abhishanya https://w… Data engin… 11/11/2021    10/21/2021    Finance  
    # ℹ 372 more rows
    # ℹ 108 more variables: Job_title <chr>, Company <chr>, Knowledge_in <chr>,
    #   `Minimum Experience in Years` <dbl>, City <chr>, Location <chr>,
    #   Educational_qualifications <chr>, `Payment Frequency` <chr>,
    #   Currency <chr>, Salary <dbl>, `English Needed` <dbl>,
    #   `English proficiency description` <chr>, Additional_languages <chr>,
    #   AI <dbl>, `Natural_Language_Processing(NLP)` <dbl>, Data_Pipelines <dbl>, …
…
